-------------------------------------------------------------------------------
Test set: org1.AppTest
-------------------------------------------------------------------------------
Tests run: 1, Failures: 0, Errors: 0, Skipped: 0, Time elapsed: 0.097 s - in org1.AppTest
