-------------------------------------------------------------------------------
Test set: mukesh.AppTest
-------------------------------------------------------------------------------
Tests run: 1, Failures: 0, Errors: 0, Skipped: 0, Time elapsed: 0.1 s - in mukesh.AppTest
