-------------------------------------------------------------------------------
Test set: profile.AppTest
-------------------------------------------------------------------------------
Tests run: 1, Failures: 0, Errors: 0, Skipped: 0, Time elapsed: 0.194 s - in profile.AppTest
